{
  "annotations": {
    "list": [
      {
        "builtIn": 1,
        "datasource": {
          "type": "datasource",
          "uid": "grafana"
        },
        "enable": true,
        "hide": true,
        "iconColor": "rgba(0, 211, 255, 1)",
        "name": "Annotations & Alerts",
        "target": {
          "limit": 100,
          "matchAny": false,
          "tags": [],
          "type": "dashboard"
        },
        "type": "dashboard"
      }
    ]
  },
  "editable": true,
  "fiscalYearStartMonth": 0,
  "graphTooltip": 0,
  "links": [],
  "panels": [
    {
      "datasource": {
        "type": "prometheus",
        "uid": "prometheus-datasource-uid"
      },
      "fieldConfig": {
        "defaults": {
          "color": {
            "mode": "thresholds"
          },
          "custom": {
            "align": "auto",
            "cellOptions": {
              "type": "auto"
            },
            "filterable": true,
            "inspect": false
          },
          "displayName": "",
          "mappings": [],
          "thresholds": {
            "mode": "absolute",
            "steps": [
              {
                "color": "green",
                "value": null
              }
            ]
          },
          "unit": "string"
        },
        "overrides": [
          {
            "matcher": {
              "id": "byName",
              "options": "Value #A"
            },
            "properties": [
              {
                "id": "unit",
                "value": "bool_yes_no"
              },
              {
                "id": "thresholds",
                "value": {
                  "mode": "absolute",
                  "steps": [
                    {
                      "color": "dark-red",
                      "value": null
                    },
                    {
                      "color": "dark-green",
                      "value": 1
                    }
                  ]
                }
              },
              {
                "id": "custom.cellOptions",
                "value": {
                  "mode": "basic",
                  "type": "color-background"
                }
              },
              {
                "id": "custom.align",
                "value": "center"
              }
            ]
          },
          {
            "matcher": {
              "id": "byName",
              "options": "Value #B"
            },
            "properties": [
              {
                "id": "unit",
                "value": "dtdurations"
              },
              {
                "id": "thresholds",
                "value": {
                  "mode": "absolute",
                  "steps": [
                    {
                      "color": "dark-red",
                      "value": null
                    },
                    {
                      "color": "dark-yellow",
                      "value": 1814400
                    },
                    {
                      "color": "dark-green",
                      "value": 2678400
                    }
                  ]
                }
              },
              {
                "id": "custom.cellOptions",
                "value": {
                  "mode": "basic",
                  "type": "color-background"
                }
              },
              {
                "id": "custom.align",
                "value": "center"
              },
              {
                "id": "decimals",
                "value": 1
              }
            ]
          }
        ]
      },
      "gridPos": {
        "h": 16,
        "w": 24,
        "x": 0,
        "y": 0
      },
      "id": 29,
      "options": {
        "cellHeight": "sm",
        "footer": {
          "countRows": false,
          "fields": "",
          "reducer": [
            "sum"
          ],
          "show": false
        },
        "showHeader": true,
        "sortBy": [
          {
            "desc": false,
            "displayName": "Expires"
          }
        ]
      },
      "pluginVersion": "11.4.0",
      "targets": [
        {
          "datasource": {
            "type": "prometheus",
            "uid": "prometheus-datasource-uid"
          },
          "editorMode": "code",
          "exemplar": false,
          "expr": "certmanager_certificate_ready_status{condition=\"True\"}",
          "format": "table",
          "instant": true,
          "interval": "",
          "legendFormat": "",
          "refId": "A"
        },
        {
          "datasource": {
            "type": "prometheus",
            "uid": "prometheus-datasource-uid"
          },
          "editorMode": "code",
          "exemplar": false,
          "expr": "certmanager_certificate_expiration_timestamp_seconds - time()",
          "format": "table",
          "instant": true,
          "interval": "",
          "legendFormat": "",
          "refId": "B"
        }
      ],
      "title": "Let's Encrypt Certificates",
      "transformations": [
        {
          "id": "merge",
          "options": {}
        },
        {
          "id": "organize",
          "options": {
            "excludeByName": {
              "Time": true,
              "__name__": true,
              "app": true,
              "app_kubernetes_io_component": true,
              "app_kubernetes_io_instance": true,
              "app_kubernetes_io_managed_by": true,
              "app_kubernetes_io_name": true,
              "app_kubernetes_io_version": true,
              "cluster_id": true,
              "condition": true,
              "helm_sh_chart": true,
              "instance": true,
              "issuer_kind": true,
              "issuer_name": true,
              "job": true,
              "kubernetes_namespace": true,
              "kubernetes_pod_name": true,
              "pod_template_hash": true
            },
            "indexByName": {},
            "renameByName": {
              "Value #A": "Ready",
              "Value #B": "Expires",
              "name": "Name",
              "namespace": "Namespace"
            }
          }
        }
      ],
      "type": "table"
    },
    {
      "datasource": {
        "type": "prometheus",
        "uid": "prometheus-datasource-uid"
      },
      "fieldConfig": {
        "defaults": {
          "color": {
            "mode": "palette-classic"
          },
          "custom": {
            "axisBorderShow": false,
            "axisCenteredZero": false,
            "axisColorMode": "text",
            "axisLabel": "",
            "axisPlacement": "auto",
            "axisSoftMax": 0.05,
            "barAlignment": 0,
            "barWidthFactor": 0.6,
            "drawStyle": "line",
            "fillOpacity": 0,
            "gradientMode": "none",
            "hideFrom": {
              "legend": false,
              "tooltip": false,
              "viz": false
            },
            "insertNulls": false,
            "lineInterpolation": "linear",
            "lineWidth": 1,
            "pointSize": 5,
            "scaleDistribution": {
              "type": "linear"
            },
            "showPoints": "never",
            "spanNulls": false,
            "stacking": {
              "group": "A",
              "mode": "none"
            },
            "thresholdsStyle": {
              "mode": "line"
            }
          },
          "links": [],
          "mappings": [],
          "min": 0,
          "thresholds": {
            "mode": "absolute",
            "steps": [
              {
                "color": "green",
                "value": null
              }
            ]
          },
          "unit": "short"
        },
        "overrides": []
      },
      "gridPos": {
        "h": 8,
        "w": 8,
        "x": 0,
        "y": 16
      },
      "id": 2,
      "options": {
        "legend": {
          "calcs": [],
          "displayMode": "list",
          "placement": "bottom",
          "showLegend": false
        },
        "tooltip": {
          "mode": "multi",
          "sort": "none"
        }
      },
      "pluginVersion": "11.4.0",
      "targets": [
        {
          "datasource": {
            "type": "prometheus",
            "uid": "prometheus-datasource-uid"
          },
          "editorMode": "code",
          "exemplar": true,
          "expr": "sum(rate(container_cpu_usage_seconds_total{namespace=\"devops-certmgr\",container!=\"POD\",container!=\"\",image!=\"\",pod=~\"^cert-manager-[a-z0-9]+-[0-9a-z]+$\"}[$__rate_interval])) by (pod)",
          "interval": "",
          "legendFormat": "{{ pod }}",
          "range": true,
          "refId": "A"
        },
        {
          "datasource": {
            "type": "prometheus",
            "uid": "prometheus-datasource-uid"
          },
          "editorMode": "code",
          "exemplar": false,
          "expr": "max(sum(kube_pod_container_resource_requests{namespace=\"devops-certmgr\", pod=~\"^cert-manager-[a-z0-9]+-[0-9a-z]+$\", resource=\"cpu\"}) by (pod))",
          "hide": false,
          "instant": true,
          "legendFormat": "CPU Request",
          "range": false,
          "refId": "B"
        }
      ],
      "title": "Cert Manager CPU Usage",
      "transformations": [
        {
          "id": "configFromData",
          "options": {
            "configRefId": "B",
            "mappings": [
              {
                "fieldName": "CPU Request",
                "handlerArguments": {
                  "threshold": {
                    "color": "orange"
                  }
                },
                "handlerKey": "threshold1"
              }
            ]
          }
        }
      ],
      "type": "timeseries"
    },
    {
      "datasource": {
        "type": "prometheus",
        "uid": "prometheus-datasource-uid"
      },
      "fieldConfig": {
        "defaults": {
          "color": {
            "mode": "palette-classic"
          },
          "custom": {
            "axisBorderShow": false,
            "axisCenteredZero": false,
            "axisColorMode": "text",
            "axisLabel": "",
            "axisPlacement": "auto",
            "axisSoftMax": 0.05,
            "barAlignment": 0,
            "barWidthFactor": 0.6,
            "drawStyle": "line",
            "fillOpacity": 0,
            "gradientMode": "none",
            "hideFrom": {
              "legend": false,
              "tooltip": false,
              "viz": false
            },
            "insertNulls": false,
            "lineInterpolation": "linear",
            "lineWidth": 1,
            "pointSize": 5,
            "scaleDistribution": {
              "type": "linear"
            },
            "showPoints": "never",
            "spanNulls": false,
            "stacking": {
              "group": "A",
              "mode": "none"
            },
            "thresholdsStyle": {
              "mode": "line"
            }
          },
          "links": [],
          "mappings": [],
          "min": 0,
          "thresholds": {
            "mode": "absolute",
            "steps": [
              {
                "color": "green",
                "value": null
              }
            ]
          },
          "unit": "short"
        },
        "overrides": []
      },
      "gridPos": {
        "h": 8,
        "w": 8,
        "x": 8,
        "y": 16
      },
      "id": 17,
      "options": {
        "legend": {
          "calcs": [],
          "displayMode": "list",
          "placement": "bottom",
          "showLegend": false
        },
        "tooltip": {
          "mode": "multi",
          "sort": "none"
        }
      },
      "pluginVersion": "11.4.0",
      "targets": [
        {
          "datasource": {
            "type": "prometheus",
            "uid": "prometheus-datasource-uid"
          },
          "editorMode": "code",
          "exemplar": true,
          "expr": "sum(rate(container_cpu_usage_seconds_total{namespace=\"devops-certmgr\",container!=\"POD\",container!=\"\",image!=\"\",pod=~\"^cert-manager-cainjector-[a-z0-9]+-[a-z0-9]+$\"}[$__rate_interval])) by (pod)",
          "interval": "",
          "legendFormat": "{{ pod }}",
          "range": true,
          "refId": "A"
        },
        {
          "datasource": {
            "type": "prometheus",
            "uid": "prometheus-datasource-uid"
          },
          "editorMode": "code",
          "exemplar": false,
          "expr": "max(sum(kube_pod_container_resource_requests{namespace=\"devops-certmgr\", pod=~\"^cert-manager-cainjector-[a-z0-9]+-[a-z0-9]+$\", resource=\"cpu\"}) by (pod))",
          "hide": false,
          "instant": true,
          "legendFormat": "CPU Request",
          "range": false,
          "refId": "B"
        }
      ],
      "title": "CA Injector CPU Usage",
      "transformations": [
        {
          "id": "configFromData",
          "options": {
            "configRefId": "B",
            "mappings": [
              {
                "fieldName": "CPU Request",
                "handlerArguments": {
                  "threshold": {
                    "color": "orange"
                  }
                },
                "handlerKey": "threshold1"
              }
            ]
          }
        }
      ],
      "type": "timeseries"
    },
    {
      "datasource": {
        "type": "prometheus",
        "uid": "prometheus-datasource-uid"
      },
      "fieldConfig": {
        "defaults": {
          "color": {
            "mode": "palette-classic"
          },
          "custom": {
            "axisBorderShow": false,
            "axisCenteredZero": false,
            "axisColorMode": "text",
            "axisLabel": "",
            "axisPlacement": "auto",
            "axisSoftMax": 0.05,
            "barAlignment": 0,
            "barWidthFactor": 0.6,
            "drawStyle": "line",
            "fillOpacity": 0,
            "gradientMode": "none",
            "hideFrom": {
              "legend": false,
              "tooltip": false,
              "viz": false
            },
            "insertNulls": false,
            "lineInterpolation": "linear",
            "lineWidth": 1,
            "pointSize": 5,
            "scaleDistribution": {
              "type": "linear"
            },
            "showPoints": "never",
            "spanNulls": false,
            "stacking": {
              "group": "A",
              "mode": "none"
            },
            "thresholdsStyle": {
              "mode": "line"
            }
          },
          "links": [],
          "mappings": [],
          "min": 0,
          "thresholds": {
            "mode": "absolute",
            "steps": [
              {
                "color": "green",
                "value": null
              }
            ]
          },
          "unit": "short"
        },
        "overrides": []
      },
      "gridPos": {
        "h": 8,
        "w": 8,
        "x": 16,
        "y": 16
      },
      "id": 18,
      "options": {
        "legend": {
          "calcs": [],
          "displayMode": "list",
          "placement": "bottom",
          "showLegend": false
        },
        "tooltip": {
          "mode": "multi",
          "sort": "none"
        }
      },
      "pluginVersion": "11.4.0",
      "targets": [
        {
          "datasource": {
            "type": "prometheus",
            "uid": "prometheus-datasource-uid"
          },
          "editorMode": "code",
          "exemplar": true,
          "expr": "sum(rate(container_cpu_usage_seconds_total{namespace=\"devops-certmgr\",container!=\"POD\",container!=\"\",image!=\"\",pod=~\"^cert-manager-webhook-[a-z0-9]+-[a-z0-9]+$\"}[$__rate_interval])) by (pod)",
          "interval": "",
          "legendFormat": "{{ pod }}",
          "range": true,
          "refId": "A"
        },
        {
          "datasource": {
            "type": "prometheus",
            "uid": "prometheus-datasource-uid"
          },
          "editorMode": "code",
          "exemplar": false,
          "expr": "max(sum(kube_pod_container_resource_requests{namespace=\"devops-certmgr\", pod=~\"^cert-manager-webhook-[a-z0-9]+-[a-z0-9]+$\", resource=\"cpu\"}) by (pod))",
          "hide": false,
          "instant": true,
          "legendFormat": "CPU Request",
          "range": false,
          "refId": "B"
        }
      ],
      "title": "Webhook CPU Usage",
      "transformations": [
        {
          "id": "configFromData",
          "options": {
            "configRefId": "B",
            "mappings": [
              {
                "fieldName": "CPU Request",
                "handlerArguments": {
                  "threshold": {
                    "color": "orange"
                  }
                },
                "handlerKey": "threshold1"
              }
            ]
          }
        }
      ],
      "type": "timeseries"
    },
    {
      "datasource": {
        "type": "prometheus",
        "uid": "prometheus-datasource-uid"
      },
      "fieldConfig": {
        "defaults": {
          "color": {
            "mode": "palette-classic"
          },
          "custom": {
            "axisBorderShow": false,
            "axisCenteredZero": false,
            "axisColorMode": "text",
            "axisLabel": "",
            "axisPlacement": "auto",
            "barAlignment": 0,
            "barWidthFactor": 0.6,
            "drawStyle": "line",
            "fillOpacity": 0,
            "gradientMode": "none",
            "hideFrom": {
              "legend": false,
              "tooltip": false,
              "viz": false
            },
            "insertNulls": false,
            "lineInterpolation": "linear",
            "lineWidth": 1,
            "pointSize": 5,
            "scaleDistribution": {
              "type": "linear"
            },
            "showPoints": "never",
            "spanNulls": false,
            "stacking": {
              "group": "A",
              "mode": "none"
            },
            "thresholdsStyle": {
              "mode": "off"
            }
          },
          "links": [],
          "mappings": [],
          "min": 0,
          "thresholds": {
            "mode": "absolute",
            "steps": [
              {
                "color": "green",
                "value": null
              }
            ]
          },
          "unit": "bytes"
        },
        "overrides": []
      },
      "gridPos": {
        "h": 8,
        "w": 8,
        "x": 0,
        "y": 24
      },
      "id": 4,
      "options": {
        "legend": {
          "calcs": [],
          "displayMode": "list",
          "placement": "bottom",
          "showLegend": false
        },
        "tooltip": {
          "mode": "multi",
          "sort": "none"
        }
      },
      "pluginVersion": "11.4.0",
      "targets": [
        {
          "datasource": {
            "type": "prometheus",
            "uid": "prometheus-datasource-uid"
          },
          "editorMode": "code",
          "exemplar": true,
          "expr": "sum(container_memory_working_set_bytes{namespace=\"devops-certmgr\",container!=\"POD\",container!=\"\",image!=\"\",pod=~\"^cert-manager-[a-z0-9]+-[a-z0-9]+$\"}) by (pod)",
          "interval": "",
          "legendFormat": "{{ pod }}",
          "range": true,
          "refId": "A"
        },
        {
          "datasource": {
            "type": "prometheus",
            "uid": "prometheus-datasource-uid"
          },
          "editorMode": "code",
          "exemplar": false,
          "expr": "max(sum(kube_pod_container_resource_limits{namespace=\"devops-certmgr\", pod=~\"^cert-manager-[a-z0-9]+-[a-z0-9]+$\", resource=\"memory\"}) by (pod))",
          "hide": false,
          "instant": true,
          "legendFormat": "Memory Limit",
          "range": false,
          "refId": "B"
        }
      ],
      "title": "Cert Manager Memory Usage",
      "transformations": [
        {
          "id": "configFromData",
          "options": {
            "configRefId": "B",
            "mappings": [
              {
                "fieldName": "Memory Limit",
                "handlerKey": "max"
              }
            ]
          }
        }
      ],
      "type": "timeseries"
    },
    {
      "datasource": {
        "type": "prometheus",
        "uid": "prometheus-datasource-uid"
      },
      "fieldConfig": {
        "defaults": {
          "color": {
            "mode": "palette-classic"
          },
          "custom": {
            "axisBorderShow": false,
            "axisCenteredZero": false,
            "axisColorMode": "text",
            "axisLabel": "",
            "axisPlacement": "auto",
            "barAlignment": 0,
            "barWidthFactor": 0.6,
            "drawStyle": "line",
            "fillOpacity": 0,
            "gradientMode": "none",
            "hideFrom": {
              "legend": false,
              "tooltip": false,
              "viz": false
            },
            "insertNulls": false,
            "lineInterpolation": "linear",
            "lineWidth": 1,
            "pointSize": 5,
            "scaleDistribution": {
              "type": "linear"
            },
            "showPoints": "never",
            "spanNulls": false,
            "stacking": {
              "group": "A",
              "mode": "none"
            },
            "thresholdsStyle": {
              "mode": "off"
            }
          },
          "links": [],
          "mappings": [],
          "min": 0,
          "thresholds": {
            "mode": "absolute",
            "steps": [
              {
                "color": "green",
                "value": null
              }
            ]
          },
          "unit": "bytes"
        },
        "overrides": []
      },
      "gridPos": {
        "h": 8,
        "w": 8,
        "x": 8,
        "y": 24
      },
      "id": 19,
      "options": {
        "legend": {
          "calcs": [],
          "displayMode": "list",
          "placement": "bottom",
          "showLegend": false
        },
        "tooltip": {
          "mode": "multi",
          "sort": "none"
        }
      },
      "pluginVersion": "11.4.0",
      "targets": [
        {
          "datasource": {
            "type": "prometheus",
            "uid": "prometheus-datasource-uid"
          },
          "editorMode": "code",
          "exemplar": true,
          "expr": "sum(container_memory_working_set_bytes{namespace=\"devops-certmgr\",container!=\"POD\",container!=\"\",image!=\"\",pod=~\"^cert-manager-cainjector-[a-z0-9]+-[a-z0-9]+$\"}) by (pod)",
          "interval": "",
          "legendFormat": "{{ pod }}",
          "range": true,
          "refId": "A"
        },
        {
          "datasource": {
            "type": "prometheus",
            "uid": "prometheus-datasource-uid"
          },
          "editorMode": "code",
          "exemplar": false,
          "expr": "max(sum(kube_pod_container_resource_limits{namespace=\"devops-certmgr\", pod=~\"^cert-manager-cainjector-[a-z0-9]+-[a-z0-9]+$\", resource=\"memory\"}) by (pod))",
          "hide": false,
          "instant": true,
          "legendFormat": "Memory Limit",
          "range": false,
          "refId": "B"
        }
      ],
      "title": "CA Injector Memory Usage",
      "transformations": [
        {
          "id": "configFromData",
          "options": {
            "configRefId": "B",
            "mappings": [
              {
                "fieldName": "Memory Limit",
                "handlerKey": "max"
              }
            ]
          }
        }
      ],
      "type": "timeseries"
    },
    {
      "datasource": {
        "type": "prometheus",
        "uid": "prometheus-datasource-uid"
      },
      "fieldConfig": {
        "defaults": {
          "color": {
            "mode": "palette-classic"
          },
          "custom": {
            "axisBorderShow": false,
            "axisCenteredZero": false,
            "axisColorMode": "text",
            "axisLabel": "",
            "axisPlacement": "auto",
            "barAlignment": 0,
            "barWidthFactor": 0.6,
            "drawStyle": "line",
            "fillOpacity": 0,
            "gradientMode": "none",
            "hideFrom": {
              "legend": false,
              "tooltip": false,
              "viz": false
            },
            "insertNulls": false,
            "lineInterpolation": "linear",
            "lineWidth": 1,
            "pointSize": 5,
            "scaleDistribution": {
              "type": "linear"
            },
            "showPoints": "never",
            "spanNulls": false,
            "stacking": {
              "group": "A",
              "mode": "none"
            },
            "thresholdsStyle": {
              "mode": "off"
            }
          },
          "links": [],
          "mappings": [],
          "min": 0,
          "thresholds": {
            "mode": "absolute",
            "steps": [
              {
                "color": "green",
                "value": null
              }
            ]
          },
          "unit": "bytes"
        },
        "overrides": []
      },
      "gridPos": {
        "h": 8,
        "w": 8,
        "x": 16,
        "y": 24
      },
      "id": 20,
      "options": {
        "legend": {
          "calcs": [],
          "displayMode": "list",
          "placement": "bottom",
          "showLegend": false
        },
        "tooltip": {
          "mode": "multi",
          "sort": "none"
        }
      },
      "pluginVersion": "11.4.0",
      "targets": [
        {
          "datasource": {
            "type": "prometheus",
            "uid": "prometheus-datasource-uid"
          },
          "editorMode": "code",
          "exemplar": true,
          "expr": "sum(container_memory_working_set_bytes{namespace=\"devops-certmgr\",container!=\"POD\",container!=\"\",image!=\"\",pod=~\"^cert-manager-webhook-[a-z0-9]+-[a-z0-9]+$\"}) by (pod)",
          "interval": "",
          "legendFormat": "{{ pod }}",
          "range": true,
          "refId": "A"
        },
        {
          "datasource": {
            "type": "prometheus",
            "uid": "prometheus-datasource-uid"
          },
          "editorMode": "code",
          "exemplar": false,
          "expr": "max(sum(kube_pod_container_resource_limits{namespace=\"devops-certmgr\", pod=~\"^cert-manager-webhook-[a-z0-9]+-[a-z0-9]+$\", resource=\"memory\"}) by (pod))",
          "hide": false,
          "instant": true,
          "legendFormat": "Memory Limit",
          "range": false,
          "refId": "B"
        }
      ],
      "title": "Webhook Memory Usage",
      "transformations": [
        {
          "id": "configFromData",
          "options": {
            "configRefId": "B",
            "mappings": [
              {
                "fieldName": "Memory Limit",
                "handlerKey": "max"
              }
            ]
          }
        }
      ],
      "type": "timeseries"
    },
    {
      "datasource": {
        "type": "prometheus",
        "uid": "prometheus-datasource-uid"
      },
      "fieldConfig": {
        "defaults": {
          "color": {
            "mode": "thresholds"
          },
          "decimals": 0,
          "mappings": [
            {
              "options": {
                "match": "null",
                "result": {
                  "text": "N/A"
                }
              },
              "type": "special"
            }
          ],
          "thresholds": {
            "mode": "absolute",
            "steps": [
              {
                "color": "green",
                "value": null
              },
              {
                "color": "red",
                "value": 1
              }
            ]
          },
          "unit": "short"
        },
        "overrides": []
      },
      "gridPos": {
        "h": 8,
        "w": 8,
        "x": 0,
        "y": 32
      },
      "id": 26,
      "maxDataPoints": 100,
      "options": {
        "colorMode": "value",
        "graphMode": "none",
        "justifyMode": "auto",
        "orientation": "horizontal",
        "percentChangeColorMode": "standard",
        "reduceOptions": {
          "calcs": [
            "lastNotNull"
          ],
          "fields": "",
          "values": false
        },
        "showPercentChange": false,
        "textMode": "auto",
        "wideLayout": true
      },
      "pluginVersion": "11.4.0",
      "targets": [
        {
          "datasource": {
            "type": "prometheus",
            "uid": "prometheus-datasource-uid"
          },
          "editorMode": "code",
          "exemplar": false,
          "expr": "sum(increase(kube_pod_container_status_restarts_total{namespace=\"devops-certmgr\", pod=~\"^cert-manager-[a-z0-9]+-[a-z0-9]+$\"}[$__range]))",
          "instant": true,
          "interval": "",
          "legendFormat": "Restarts",
          "refId": "A"
        }
      ],
      "title": "Cert Manager Container Restarts",
      "type": "stat"
    },
    {
      "datasource": {
        "type": "prometheus",
        "uid": "prometheus-datasource-uid"
      },
      "fieldConfig": {
        "defaults": {
          "color": {
            "mode": "thresholds"
          },
          "decimals": 0,
          "mappings": [
            {
              "options": {
                "match": "null",
                "result": {
                  "text": "N/A"
                }
              },
              "type": "special"
            }
          ],
          "thresholds": {
            "mode": "absolute",
            "steps": [
              {
                "color": "green",
                "value": null
              },
              {
                "color": "red",
                "value": 1
              }
            ]
          },
          "unit": "short"
        },
        "overrides": []
      },
      "gridPos": {
        "h": 8,
        "w": 8,
        "x": 8,
        "y": 32
      },
      "id": 30,
      "maxDataPoints": 100,
      "options": {
        "colorMode": "value",
        "graphMode": "none",
        "justifyMode": "auto",
        "orientation": "horizontal",
        "percentChangeColorMode": "standard",
        "reduceOptions": {
          "calcs": [
            "lastNotNull"
          ],
          "fields": "",
          "values": false
        },
        "showPercentChange": false,
        "textMode": "auto",
        "wideLayout": true
      },
      "pluginVersion": "11.4.0",
      "targets": [
        {
          "datasource": {
            "type": "prometheus",
            "uid": "prometheus-datasource-uid"
          },
          "editorMode": "code",
          "exemplar": false,
          "expr": "sum(increase(kube_pod_container_status_restarts_total{namespace=\"devops-certmgr\", pod=~\"^cert-manager-cainjector-[a-z0-9]+-[a-z0-9]+$\"}[$__range]))",
          "instant": true,
          "interval": "",
          "legendFormat": "Restarts",
          "refId": "A"
        }
      ],
      "title": "CA Injector Container Restarts",
      "type": "stat"
    },
    {
      "datasource": {
        "type": "prometheus",
        "uid": "prometheus-datasource-uid"
      },
      "fieldConfig": {
        "defaults": {
          "color": {
            "mode": "thresholds"
          },
          "decimals": 0,
          "mappings": [
            {
              "options": {
                "match": "null",
                "result": {
                  "text": "N/A"
                }
              },
              "type": "special"
            }
          ],
          "thresholds": {
            "mode": "absolute",
            "steps": [
              {
                "color": "green",
                "value": null
              },
              {
                "color": "red",
                "value": 1
              }
            ]
          },
          "unit": "short"
        },
        "overrides": []
      },
      "gridPos": {
        "h": 8,
        "w": 8,
        "x": 16,
        "y": 32
      },
      "id": 27,
      "maxDataPoints": 100,
      "options": {
        "colorMode": "value",
        "graphMode": "none",
        "justifyMode": "auto",
        "orientation": "horizontal",
        "percentChangeColorMode": "standard",
        "reduceOptions": {
          "calcs": [
            "lastNotNull"
          ],
          "fields": "",
          "values": false
        },
        "showPercentChange": false,
        "textMode": "auto",
        "wideLayout": true
      },
      "pluginVersion": "11.4.0",
      "targets": [
        {
          "datasource": {
            "type": "prometheus",
            "uid": "prometheus-datasource-uid"
          },
          "editorMode": "code",
          "exemplar": false,
          "expr": "sum(increase(kube_pod_container_status_restarts_total{namespace=\"devops-certmgr\", pod=~\"^cert-manager-webhook-[a-z0-9]+-[a-z0-9]+$\"}[$__range]))",
          "instant": true,
          "interval": "",
          "legendFormat": "Restarts",
          "refId": "A"
        }
      ],
      "title": "Webhook Container Restarts",
      "type": "stat"
    }
  ],
  "preload": false,
  "refresh": "",
  "schemaVersion": 40,
  "tags": [],
  "templating": {
    "list": []
  },
  "time": {
    "from": "now-3h",
    "to": "now"
  },
  "timepicker": {},
  "timezone": "",
  "title": "Certificate Manager Dashboard",
  "uid": "certificate-manager-dashboard-uid",
  "version": 4,
  "weekStart": ""
}
